{
  "full_coverage_start": "False",
  "iterations": 500,
  "peers": [
    {
      "uuid": "54a7969d-8436-49a3-a242-937dcf7c2d36",
      "links": [
        {
          "dist": [
            {
              "shape": 1,
              "seed": 1
            },
            {
              "shape": 10,
              "start_iter": 125,
              "seed": 1
            }
          ],
          "uuid": "14db8b89-cbf7-431a-90f0-b6ccc6bc7afc"
        }
      ]
    },
    {
      "uuid": "14db8b89-cbf7-431a-90f0-b6ccc6bc7afc",
      "links": [
        {
          "dist": [
            {
              "seed": 1,
              "scale": 1
            },
            {
              "start_iter": 125,
              "seed": 1,
              "scale": 10
            }
          ],
          "uuid": "54a7969d-8436-49a3-a242-937dcf7c2d36"
        }
      ]
    }
  ],
  "schedule_size": 1,
  "sample_size": 100,
  "schedule_method": "roundrobin"
}
