{
    "sample_size":100,
    "iterations":500,
    "schedule_size":3,
    "schedule_method":"roundrobin",
    "full_coverage_start":"False",

    "peers":[
        {
            "uuid":"54a7969d-8436-49a3-a242-937dcf7c2d36",
            "links":[
                {
                    "uuid":"14db8b89-cbf7-431a-90f0-b6ccc6bc7afc",
                    "dist":[
                        {
                            "loc":10,
                            "seed": 1
                        },
                        {
                            "loc":20,
                            "start_iter":125,
                            "seed":1
                        }
                    ]
                },
                {
                    "uuid":"4f719cf1-d23f-4c6c-a6d8-c52eaf77a53f",
                    "dist":[
                        {
                            "loc":10,
                            "seed": 1
                        },
                        {
                            "loc":100,
                            "start_iter":125,
                            "seed":1
                        }
                    ]
                },
                {
                    "uuid":"30da88e4-4c51-4200-b588-77ea80cd0655",
                    "dist":[
                        {
                            "loc":10,
                            "seed": 1
                        },
                        {
                          "loc": 11,
                          "start_iter": 125,
                          "seed": 1
                        },
                        {
                          "loc": 12,
                          "start_iter": 130,
                          "seed": 1
                        },
                        {
                          "loc": 13,
                          "start_iter": 135,
                          "seed": 1
                        },
                        {
                          "loc": 14,
                          "start_iter": 140,
                          "seed": 1
                        },
                        {
                          "loc": 15,
                          "start_iter": 145,
                          "seed": 1
                        },
                        {
                          "loc": 16,
                          "start_iter": 150,
                          "seed": 1
                        },
                        {
                          "loc": 17,
                          "start_iter": 155,
                          "seed": 1
                        },
                        {
                          "loc": 18,
                          "start_iter": 160,
                          "seed": 1
                        },
                        {
                          "loc": 19,
                          "start_iter": 165,
                          "seed": 1
                        },
                        {
                          "loc": 20,
                          "start_iter": 170,
                          "seed": 1
                        }
                    ]
                },
                {
                    "uuid":"05df8ac6-6402-460a-a709-14c292a61689"
                },
                {
                    "uuid":"2fb27366-07e6-4b4a-8b36-8ead6005d4f2"
                },
                {
                    "uuid":"e245560d-ea17-401e-a933-f663b9632299"
                },
                {
                    "uuid":"500393c1-ecb5-48e2-87d1-e1ab08ccd3fa"
                },
                {
                    "uuid":"77a477ee-8014-4fc8-a237-f73f95be19ca"
                },
                {
                    "uuid":"93289eac-e221-4c5e-9eee-9abd018f5d32"
                }
            ]
        },
        {
            "uuid":"14db8b89-cbf7-431a-90f0-b6ccc6bc7afc",
            "links":[
                {
                    "uuid":"54a7969d-8436-49a3-a242-937dcf7c2d36"
                },
                {
                    "uuid":"4f719cf1-d23f-4c6c-a6d8-c52eaf77a53f"
                },
                {
                    "uuid":"30da88e4-4c51-4200-b588-77ea80cd0655"
                },
                {
                    "uuid":"05df8ac6-6402-460a-a709-14c292a61689"
                },
                {
                    "uuid":"2fb27366-07e6-4b4a-8b36-8ead6005d4f2"
                },
                {
                    "uuid":"e245560d-ea17-401e-a933-f663b9632299"
                },
                {
                    "uuid":"500393c1-ecb5-48e2-87d1-e1ab08ccd3fa"
                },
                {
                    "uuid":"77a477ee-8014-4fc8-a237-f73f95be19ca"
                },
                {
                    "uuid":"93289eac-e221-4c5e-9eee-9abd018f5d32"
                }

            ]
        },
        {
            "uuid":"4f719cf1-d23f-4c6c-a6d8-c52eaf77a53f",
            "links":[
                {
                    "uuid":"14db8b89-cbf7-431a-90f0-b6ccc6bc7afc"
                },
                {
                    "uuid":"54a7969d-8436-49a3-a242-937dcf7c2d36"
                },
                {
                    "uuid":"30da88e4-4c51-4200-b588-77ea80cd0655"
                },
                {
                    "uuid":"05df8ac6-6402-460a-a709-14c292a61689"
                },
                {
                    "uuid":"2fb27366-07e6-4b4a-8b36-8ead6005d4f2"
                },
                {
                    "uuid":"e245560d-ea17-401e-a933-f663b9632299"
                },
                {
                    "uuid":"500393c1-ecb5-48e2-87d1-e1ab08ccd3fa"
                },
                {
                    "uuid":"77a477ee-8014-4fc8-a237-f73f95be19ca"
                },
                {
                    "uuid":"93289eac-e221-4c5e-9eee-9abd018f5d32"
                }

            ]
        },
        {
            "uuid":"30da88e4-4c51-4200-b588-77ea80cd0655",
            "links":[
                {
                    "uuid":"14db8b89-cbf7-431a-90f0-b6ccc6bc7afc"
                },
                {
                    "uuid":"4f719cf1-d23f-4c6c-a6d8-c52eaf77a53f"
                },
                {
                    "uuid":"54a7969d-8436-49a3-a242-937dcf7c2d36"
                },
                {
                    "uuid":"05df8ac6-6402-460a-a709-14c292a61689"
                },
                {
                    "uuid":"2fb27366-07e6-4b4a-8b36-8ead6005d4f2"
                },
                {
                    "uuid":"e245560d-ea17-401e-a933-f663b9632299"
                },
                {
                    "uuid":"500393c1-ecb5-48e2-87d1-e1ab08ccd3fa"
                },
                {
                    "uuid":"77a477ee-8014-4fc8-a237-f73f95be19ca"
                },
                {
                    "uuid":"93289eac-e221-4c5e-9eee-9abd018f5d32"
                }
            ]
        },
        {
            "uuid":"05df8ac6-6402-460a-a709-14c292a61689",
            "links":[
                {
                    "uuid":"14db8b89-cbf7-431a-90f0-b6ccc6bc7afc"
                },
                {
                    "uuid":"4f719cf1-d23f-4c6c-a6d8-c52eaf77a53f"
                },
                {
                    "uuid":"54a7969d-8436-49a3-a242-937dcf7c2d36"
                },
                {
                    "uuid":"30da88e4-4c51-4200-b588-77ea80cd0655"
                },
                {
                    "uuid":"2fb27366-07e6-4b4a-8b36-8ead6005d4f2"
                },
                {
                    "uuid":"e245560d-ea17-401e-a933-f663b9632299"
                },
                {
                    "uuid":"500393c1-ecb5-48e2-87d1-e1ab08ccd3fa"
                },
                {
                    "uuid":"77a477ee-8014-4fc8-a237-f73f95be19ca"
                },
                {
                    "uuid":"93289eac-e221-4c5e-9eee-9abd018f5d32"
                }
            ]
        },
        {
            "uuid":"2fb27366-07e6-4b4a-8b36-8ead6005d4f2",
            "links":[
                {
                    "uuid":"14db8b89-cbf7-431a-90f0-b6ccc6bc7afc"
                },
                {
                    "uuid":"4f719cf1-d23f-4c6c-a6d8-c52eaf77a53f"
                },
                {
                    "uuid":"54a7969d-8436-49a3-a242-937dcf7c2d36"
                },
                {
                    "uuid":"30da88e4-4c51-4200-b588-77ea80cd0655"
                },
                {
                    "uuid":"05df8ac6-6402-460a-a709-14c292a61689"
                },
                {
                    "uuid":"e245560d-ea17-401e-a933-f663b9632299"
                },
                {
                    "uuid":"500393c1-ecb5-48e2-87d1-e1ab08ccd3fa"
                },
                {
                    "uuid":"77a477ee-8014-4fc8-a237-f73f95be19ca"
                },
                {
                    "uuid":"93289eac-e221-4c5e-9eee-9abd018f5d32"
                }
            ]
        },
        {
            "uuid":"e245560d-ea17-401e-a933-f663b9632299",
            "links":[
                {
                    "uuid":"14db8b89-cbf7-431a-90f0-b6ccc6bc7afc"
                },
                {
                    "uuid":"4f719cf1-d23f-4c6c-a6d8-c52eaf77a53f"
                },
                {
                    "uuid":"54a7969d-8436-49a3-a242-937dcf7c2d36"
                },
                {
                    "uuid":"30da88e4-4c51-4200-b588-77ea80cd0655"
                },
                {
                    "uuid":"05df8ac6-6402-460a-a709-14c292a61689"
                },
                {
                    "uuid":"2fb27366-07e6-4b4a-8b36-8ead6005d4f2"
                },
                {
                    "uuid":"500393c1-ecb5-48e2-87d1-e1ab08ccd3fa"
                },
                {
                    "uuid":"77a477ee-8014-4fc8-a237-f73f95be19ca"
                },
                {
                    "uuid":"93289eac-e221-4c5e-9eee-9abd018f5d32"
                }
            ]
        },
        {
            "uuid":"500393c1-ecb5-48e2-87d1-e1ab08ccd3fa",
            "links":[
                {
                    "uuid":"14db8b89-cbf7-431a-90f0-b6ccc6bc7afc"
                },
                {
                    "uuid":"4f719cf1-d23f-4c6c-a6d8-c52eaf77a53f"
                },
                {
                    "uuid":"54a7969d-8436-49a3-a242-937dcf7c2d36"
                },
                {
                    "uuid":"30da88e4-4c51-4200-b588-77ea80cd0655"
                },
                {
                    "uuid":"05df8ac6-6402-460a-a709-14c292a61689"
                },
                {
                    "uuid":"2fb27366-07e6-4b4a-8b36-8ead6005d4f2"
                },
                {
                    "uuid":"e245560d-ea17-401e-a933-f663b9632299"
                },
                {
                    "uuid":"77a477ee-8014-4fc8-a237-f73f95be19ca"
                },
                {
                    "uuid":"93289eac-e221-4c5e-9eee-9abd018f5d32"
                }
            ]
        },
        {
            "uuid":"77a477ee-8014-4fc8-a237-f73f95be19ca",
            "links":[
                {
                    "uuid":"14db8b89-cbf7-431a-90f0-b6ccc6bc7afc"
                },
                {
                    "uuid":"4f719cf1-d23f-4c6c-a6d8-c52eaf77a53f"
                },
                {
                    "uuid":"54a7969d-8436-49a3-a242-937dcf7c2d36"
                },
                {
                    "uuid":"30da88e4-4c51-4200-b588-77ea80cd0655"
                },
                {
                    "uuid":"05df8ac6-6402-460a-a709-14c292a61689"
                },
                {
                    "uuid":"2fb27366-07e6-4b4a-8b36-8ead6005d4f2"
                },
                {
                    "uuid":"e245560d-ea17-401e-a933-f663b9632299"
                },
                {
                    "uuid":"500393c1-ecb5-48e2-87d1-e1ab08ccd3fa"
                },
                {
                    "uuid":"93289eac-e221-4c5e-9eee-9abd018f5d32"
                }
            ]
        },
        {
            "uuid":"93289eac-e221-4c5e-9eee-9abd018f5d32",
            "links":[
                {
                    "uuid":"14db8b89-cbf7-431a-90f0-b6ccc6bc7afc"
                },
                {
                    "uuid":"4f719cf1-d23f-4c6c-a6d8-c52eaf77a53f"
                },
                {
                    "uuid":"54a7969d-8436-49a3-a242-937dcf7c2d36"
                },
                {
                    "uuid":"30da88e4-4c51-4200-b588-77ea80cd0655"
                },
                {
                    "uuid":"05df8ac6-6402-460a-a709-14c292a61689"
                },
                {
                    "uuid":"2fb27366-07e6-4b4a-8b36-8ead6005d4f2"
                },
                {
                    "uuid":"e245560d-ea17-401e-a933-f663b9632299"
                },
                {
                    "uuid":"500393c1-ecb5-48e2-87d1-e1ab08ccd3fa"
                },
                {
                    "uuid":"77a477ee-8014-4fc8-a237-f73f95be19ca"
                }
            ]
        }
    ]
}
