{
  "full_coverage_start": "False",
  "iterations": 500,
  "peers": [
    {
      "uuid": "54a7969d-8436-49a3-a242-937dcf7c2d36",
      "links": [
        {
          "dist": [
            {
              "loc": 10,
              "seed": 1
            },
            {
              "loc": 100,
              "start_iter": 125,
              "seed": 1
            }
          ],
          "uuid": "14db8b89-cbf7-431a-90f0-b6ccc6bc7afc"
        },
        {
            "uuid":"4f719cf1-d23f-4c6c-a6d8-c52eaf77a53f",
            "dist":[
                {
                    "seed":2,
                    "loc":20
                }
            ]
        }
      ]
    },
    {
      "uuid": "14db8b89-cbf7-431a-90f0-b6ccc6bc7afc",
      "links": [
        {
          "dist": [
            {
              "loc": 10,
              "seed": 1
            },
            {
              "loc": 100,
              "start_iter": 125,
              "seed": 1
            }
          ],
          "uuid": "54a7969d-8436-49a3-a242-937dcf7c2d36"
        },
        {
            "uuid":"4f719cf1-d23f-4c6c-a6d8-c52eaf77a53f",
            "dist":[
                {
                    "seed":4,
                    "scale":10
                }
            ]
        }
      ]
    },
    {
        "uuid":"4f719cf1-d23f-4c6c-a6d8-c52eaf77a53f",
        "links":[
            {
                "uuid":"14db8b89-cbf7-431a-90f0-b6ccc6bc7afc",
                "dist":[
                    {
                        "seed":5,
                        "shape":1
                    }
                ]
            },
            {
                "uuid":"54a7969d-8436-49a3-a242-937dcf7c2d36",
                "dist":[
                    {
                        "seed":6,
                        "shape":10
                    }
                ]
            }
        ]
    }
  ],
  "schedule_size": 1,
  "sample_size": 100,
  "schedule_method": "roundrobin"
}
